[gd_scene load_steps=2 format=2]

[ext_resource path="res://components/levels/level_tutorial_1.gd" type="Script" id=1]

[node name="Tutorial2" type="Spatial"]
script = ExtResource( 1 )

[node name="Floors" type="Spatial" parent="."]

[node name="Walls" type="Spatial" parent="."]

[node name="Shelves" type="Spatial" parent="."]

[node name="Other" type="Spatial" parent="."]

[node name="CameraAnchor" type="Spatial" parent="."]

[node name="Camera" type="Camera" parent="CameraAnchor"]
transform = Transform( 1, 0, 0, 0, 0.707107, 0.707107, 0, -0.707107, 0.707107, 0, 15, 15 )

[node name="PowerUps" type="Spatial" parent="."]

[node name="Tracks" type="Spatial" parent="."]

[node name="Trucks" type="Spatial" parent="."]
