<?xml version="1.0" encoding="UTF-8" standalone="no"?>
<!-- Created with Inkscape (http://www.inkscape.org/) -->

<svg
   width="256.0px"
   height="256.0px"
   viewBox="0 0 256.0 256.0"
   version="1.1"
   id="SVGRoot"
   sodipodi:docname="button.svg"
   inkscape:version="1.2.2 (732a01da63, 2022-12-09)"
   xmlns:inkscape="http://www.inkscape.org/namespaces/inkscape"
   xmlns:sodipodi="http://sodipodi.sourceforge.net/DTD/sodipodi-0.dtd"
   xmlns="http://www.w3.org/2000/svg"
   xmlns:svg="http://www.w3.org/2000/svg">
  <sodipodi:namedview
     id="namedview8330"
     pagecolor="#ffffff"
     bordercolor="#000000"
     borderopacity="0.25"
     inkscape:showpageshadow="2"
     inkscape:pageopacity="0.0"
     inkscape:pagecheckerboard="0"
     inkscape:deskcolor="#d1d1d1"
     inkscape:document-units="px"
     showgrid="true"
     inkscape:zoom="4.051698"
     inkscape:cx="136.8562"
     inkscape:cy="146.48179"
     inkscape:window-width="1920"
     inkscape:window-height="991"
     inkscape:window-x="-9"
     inkscape:window-y="-9"
     inkscape:window-maximized="1"
     inkscape:current-layer="layer1">
    <inkscape:grid
       type="xygrid"
       id="grid8453" />
  </sodipodi:namedview>
  <defs
     id="defs8325" />
  <g
     inkscape:label="Layer 1"
     inkscape:groupmode="layer"
     id="layer1">
    <rect
       style="fill:#d45500;stroke-width:1.0559"
       id="rect8460"
       width="248.04414"
       height="120.93695"
       x="4.1957726"
       y="74.783455" />
    <rect
       style="fill:#ff6600;stroke-width:2.62322"
       id="rect8462"
       width="237.92494"
       height="109.09007"
       x="9.3787842"
       y="80.953712" />
    <rect
       style="fill:#ff7f2a;stroke-width:1.04766"
       id="rect8516"
       width="237.87225"
       height="3.8394642"
       x="9.424139"
       y="80.977783" />
    <rect
       style="fill:#ff7f2a;stroke-width:0.999451"
       id="rect8516-6"
       width="238.13403"
       height="3.490422"
       x="9.2496214"
       y="186.38853" />
    <rect
       style="fill:#ff7f2a;stroke-width:0.670185"
       id="rect8516-6-0"
       width="107.0749"
       height="3.490422"
       x="80.946014"
       y="-12.708277"
       transform="rotate(90)" />
    <rect
       style="fill:#ff7f2a;stroke-width:0.671257"
       id="rect8516-6-0-9"
       width="107.41774"
       height="3.490422"
       x="81.065041"
       y="-247.38365"
       transform="rotate(90)" />
    <path
       style="fill:#ff7f2a"
       d="M 8.7260548,83.072041 247.81996,189.52991 247.12187,185.69045 13.612645,81.326831 Z"
       id="path8638" />
    <path
       style="fill:#d45500;stroke-width:1.00322"
       d="M 242.43908,80.997606 2.8708565,187.93009 3.3230317,186.30471 239.27389,80.484168 Z m 9.75117,3.768077 L 12.622033,191.69817 13.074208,190.07279 249.02507,84.252245 Z"
       id="path8638-6"
       sodipodi:nodetypes="ccccc" />
    <path
       style="fill:#d45500;stroke-width:0.997005"
       d="M 15.037254,80.898945 251.57998,187.86145 251.13352,186.23562 18.162467,80.385362 Z M 5.4092252,84.668079 241.95195,191.63059 241.50548,190.00475 8.5344388,84.154505 Z"
       id="path8638-6-4"
       sodipodi:nodetypes="ccccc" />
    <path
       style="fill:#ff7f2a"
       d="M 247.29639,83.770125 8.20249,190.228 8.90058,186.38854 242.4098,82.024915 Z"
       id="path8638-1" />
  </g>
</svg>
