<?xml version="1.0" encoding="UTF-8" standalone="no"?>
<!-- Created with Inkscape (http://www.inkscape.org/) -->

<svg
   width="256.0px"
   height="256.0px"
   viewBox="0 0 256.0 256.0"
   version="1.1"
   id="SVGRoot"
   sodipodi:docname="x.svg"
   inkscape:version="1.2.2 (732a01da63, 2022-12-09)"
   inkscape:export-filename="..\..\src\assets\ui\mainmenu\triangle.png"
   inkscape:export-xdpi="96"
   inkscape:export-ydpi="96"
   xmlns:inkscape="http://www.inkscape.org/namespaces/inkscape"
   xmlns:sodipodi="http://sodipodi.sourceforge.net/DTD/sodipodi-0.dtd"
   xmlns="http://www.w3.org/2000/svg"
   xmlns:svg="http://www.w3.org/2000/svg">
  <sodipodi:namedview
     id="namedview3732"
     pagecolor="#ffffff"
     bordercolor="#000000"
     borderopacity="0.25"
     inkscape:showpageshadow="2"
     inkscape:pageopacity="0.0"
     inkscape:pagecheckerboard="0"
     inkscape:deskcolor="#d1d1d1"
     inkscape:document-units="px"
     showgrid="true"
     inkscape:zoom="2.1619313"
     inkscape:cx="134.3706"
     inkscape:cy="109.85548"
     inkscape:window-width="1920"
     inkscape:window-height="991"
     inkscape:window-x="-9"
     inkscape:window-y="-9"
     inkscape:window-maximized="1"
     inkscape:current-layer="layer3">
    <inkscape:grid
       type="xygrid"
       id="grid3855" />
  </sodipodi:namedview>
  <defs
     id="defs3727" />
  <g
     inkscape:label="Layer 1"
     inkscape:groupmode="layer"
     id="layer1">
    <g
       inkscape:groupmode="layer"
       id="layer3"
       inkscape:label="background 1"
       style="display:inline"
       transform="matrix(3.7795276,0,0,3.7795276,3.4853685,-27.057587)">
      <ellipse
         style="display:none;fill:#ffffff;stroke-width:0.306392"
         id="path1110"
         cx="32.304775"
         cy="40.997849"
         rx="24.170614"
         ry="23.803467" />
      <path
         style="display:none;fill:#000000;stroke-width:0.264583"
         d="M 33.712178,14.379575 4.7074408,64.067014 62.472149,63.822248 Z"
         id="path1225"
         sodipodi:nodetypes="cccc" />
      <path
         style="display:inline;fill:#ffffff;stroke-width:0.21132"
         d="M 12.172796,21.838067 55.17211,63.699867 57.454453,58.885759 16.00713,18.907741 Z"
         id="path1243" />
      <path
         style="fill:#ffffff;stroke-width:0.231382"
         d="m 11.316116,61.022776 38.553591,-42.72695 4.647556,3.903985 -38.870471,43.702946 z"
         id="path1245" />
    </g>
  </g>
</svg>
