[gd_scene load_steps=2 format=2]

[ext_resource path="res://assets/items/items_rubber_duck/rubberduck.glb" type="PackedScene" id=1]

[node name="rubberduck" instance=ExtResource( 1 )]
transform = Transform( 0.5, 0, 0, 0, 0.5, 0, 0, 0, 0.5, 0, 0, 0 )
