[gd_scene load_steps=2 format=2]

[ext_resource path="res://assets/models/packaging_station/packaging_station.glb" type="PackedScene" id=1]

[node name="packaging_station" instance=ExtResource( 1 )]
transform = Transform( 0.5, 0, 0, 0, 0.5, 0, 0, 0, 0.5, 0, 0, 0 )
